#flashes - rows - Code output 1
20,0x00008100,1
21,0x00008101,1
22,0x00008102,1
23,0x00008103,1
24,0x00008104,1
25,0x00008105,1
26,0x00008106,1
27,0x00008107,1
28,0x00008108,1
29,0x00008109,1
30,0x0000810A,1
31,0x0000810B,1
32,0x0000810C,1
33,0x0000810D,1
34,0x0000810E,1
35,0x0000810F,1

#flashes - columns - Code output 1
40,0x00008110,1
41,0x00008111,1
42,0x00008112,1
43,0x00008113,1
44,0x00008114,1
45,0x00008115,1
46,0x00008116,1
47,0x00008117,1
48,0x00008118,1
49,0x00008119,1
50,0x0000811A,1
51,0x0000811B,1
52,0x0000811C,1
53,0x0000811D,1
54,0x0000811E,1
55,0x0000811F,1

#flashes - rows - Non Target Output 2
20,0x00008206,2
21,0x00008206,2
22,0x00008206,2
23,0x00008206,2
24,0x00008206,2
25,0x00008206,2
26,0x00008206,2
27,0x00008206,2
28,0x00008206,2
29,0x00008206,2
30,0x00008206,2
31,0x00008206,2
32,0x00008206,2
33,0x00008206,2
34,0x00008206,2
35,0x00008206,2

#flashes - columns - Non Target Output 2
40,0x00008206,2
41,0x00008206,2
42,0x00008206,2
43,0x00008206,2
44,0x00008206,2
45,0x00008206,2
46,0x00008206,2
47,0x00008206,2
48,0x00008206,2
49,0x00008206,2
50,0x00008206,2
51,0x00008206,2
52,0x00008206,2
53,0x00008206,2
54,0x00008206,2
55,0x00008206,2

#targets - rows (+20) - Code output 1
60,0x00008100,1
61,0x00008101,1
62,0x00008102,1
63,0x00008103,1
64,0x00008104,1
65,0x00008105,1
66,0x00008106,1
67,0x00008107,1
68,0x00008108,1
69,0x00008109,1
70,0x0000810A,1
71,0x0000810B,1
72,0x0000810C,1
73,0x0000810D,1
74,0x0000810E,1
75,0x0000810F,1

#tragets - columns (+20) - Code output 1
80,0x00008110,1
81,0x00008111,1
82,0x00008112,1
83,0x00008113,1
84,0x00008114,1
85,0x00008115,1
86,0x00008116,1
87,0x00008117,1
88,0x00008118,1
89,0x00008119,1
90,0x0000811A,1
91,0x0000811B,1
92,0x0000811C,1
93,0x0000811D,1
94,0x0000811E,1
95,0x0000811F,1

#targets - rows (+20) - Target Output 2
60,0x00008205,2
61,0x00008205,2
62,0x00008205,2
63,0x00008205,2
64,0x00008205,2
65,0x00008205,2
66,0x00008205,2
67,0x00008205,2
68,0x00008205,2
69,0x00008205,2
70,0x00008205,2
71,0x00008205,2
72,0x00008205,2
73,0x00008205,2
74,0x00008205,2
75,0x00008205,2

#tragets - columns (+20) - Target Output 2
80,0x00008205,2
81,0x00008205,2
82,0x00008205,2
83,0x00008205,2
84,0x00008205,2
85,0x00008205,2
86,0x00008205,2
87,0x00008205,2
88,0x00008205,2
89,0x00008205,2
90,0x00008205,2
91,0x00008205,2
92,0x00008205,2
93,0x00008205,2
94,0x00008205,2
95,0x00008205,2

#control values
#Experiment start
100,0x00008001,1
#Experiement stop
101,0x00008002,1
101,0x00008002,2
#End of repetition
102,0x000081ff,1

#reset potato
103,0x00008202,1

#End of level
104,0x00000312,1

#Positive Feefback
105,0x0000030d,1

#Negative Feeback
106,0x0000030e,1